…
Rename each variable so that it is all lower-case and uses an underscore
\_ instead of a period . in the name (the recommended coding style in
the tidyverse style guide). Print the resulting table.

``` r
rename(
  iris,
  sepal_length = Sepal.Length,
  sepal_width = Sepal.Width,
  petal_length = Petal.Length,
  petal_width = Petal.Width
)
```

    ## # A tibble: 150 x 5
    ##    sepal_length sepal_width petal_length petal_width Species
    ##           <dbl>       <dbl>        <dbl>       <dbl> <fct>  
    ##  1          5.1         3.5          1.4         0.2 setosa 
    ##  2          4.9         3            1.4         0.2 setosa 
    ##  3          4.7         3.2          1.3         0.2 setosa 
    ##  4          4.6         3.1          1.5         0.2 setosa 
    ##  5          5           3.6          1.4         0.2 setosa 
    ##  6          5.4         3.9          1.7         0.4 setosa 
    ##  7          4.6         3.4          1.4         0.3 setosa 
    ##  8          5           3.4          1.5         0.2 setosa 
    ##  9          4.4         2.9          1.4         0.2 setosa 
    ## 10          4.9         3.1          1.5         0.1 setosa 
    ## # ... with 140 more rows
…
Convert the four numerical variables from cm to mm by multiplying by 10.
Print the resulting table.

``` r
mutate(
  iris,
  Sepal.Length = Sepal.Length * 10,
  Sepal.Width = Sepal.Width * 10,
  Petal.Length = Petal.Length * 10,
  Petal.Width = Petal.Width * 10
)
```

    ## # A tibble: 150 x 5
    ##    Sepal.Length Sepal.Width Petal.Length Petal.Width Species
    ##           <dbl>       <dbl>        <dbl>       <dbl> <fct>  
    ##  1           51          35           14           2 setosa 
    ##  2           49          30           14           2 setosa 
    ##  3           47          32           13           2 setosa 
    ##  4           46          31           15           2 setosa 
    ##  5           50          36           14           2 setosa 
    ##  6           54          39           17           4 setosa 
    ##  7           46          34           14           3 setosa 
    ##  8           50          34           15           2 setosa 
    ##  9           44          29           14           2 setosa 
    ## 10           49          31           15           1 setosa 
    ## # ... with 140 more rows
## QUESTION THREE

Calculate sepal area and petal area (area is equal to length multiplied
by width). Print a table with only the variables sepal area, petal area,
and species.

``` r
iris_area <- 
mutate(iris,
       Sepal_area = Sepal.Length * Sepal.Width,
       petal_area = Petal.Length * Petal.Width)
select(iris_area,Sepal_area,petal_area)
```

    ## # A tibble: 150 x 2
    ##    Sepal_area petal_area
    ##         <dbl>      <dbl>
    ##  1       17.8      0.280
    ##  2       14.7      0.280
    ##  3       15.0      0.26 
    ##  4       14.3      0.3  
    ##  5       18        0.280
    ##  6       21.1      0.68 
    ##  7       15.6      0.42 
    ##  8       17        0.3  
    ##  9       12.8      0.280
    ## 10       15.2      0.15 
    ## # ... with 140 more rows
…
## QUESTION FIVE

Calculate the following statistics for each species from the petal width
variable and print the resulting table:

``` r
iris_grouped <- group_by(iris,Species)
iris_grouped
```

    ## # A tibble: 150 x 5
    ## # Groups:   Species [3]
    ##    Sepal.Length Sepal.Width Petal.Length Petal.Width Species
    ##           <dbl>       <dbl>        <dbl>       <dbl> <fct>  
    ##  1          5.1         3.5          1.4         0.2 setosa 
    ##  2          4.9         3            1.4         0.2 setosa 
    ##  3          4.7         3.2          1.3         0.2 setosa 
    ##  4          4.6         3.1          1.5         0.2 setosa 
    ##  5          5           3.6          1.4         0.2 setosa 
    ##  6          5.4         3.9          1.7         0.4 setosa 
    ##  7          4.6         3.4          1.4         0.3 setosa 
    ##  8          5           3.4          1.5         0.2 setosa 
    ##  9          4.4         2.9          1.4         0.2 setosa 
    ## 10          4.9         3.1          1.5         0.1 setosa 
    ## # ... with 140 more rows
…
